3 Working with Data | Practical Data Analysis for Political Scientists
…
Remember that each column of a data frame might be a different type, or more formally class, of object. read_csv and its ilk try to guess the type of data each column contains: character, integer, decimal number (“double” in programming-speak), or something else. The readout above tells you what guesses it made. If it gets something wrong—say, reading a column as numbers that ought to be characters—you can use the col_types argument to set it straight.

FYI, you could also run read_csv() directly on a URL, as in:

read_csv("http://bkenkel.com/files/untidy-data.csv")

However, in analyses intended for publication, it’s usually preferable to download and save the raw data. What’s stored at a URL might change or disappear, and you’ll need to have a hard copy of the raw data for replication purposes.

Now let’s take a look at the data we’ve just loaded in.

untidy_data

## # A tibble: 215 x 13
##   country gdp.2005 gdp.2006 gdp.2007 gdp.2008 pop.2005 pop.2006 pop.2007
##   <chr>      <dbl>    <dbl>    <dbl>    <dbl>    <dbl>    <dbl>    <dbl>
## 1 AD          3.85     4.03     4.03     3.68   0.0789   0.0810   0.0827
## 2 AE        257.     283.     292.     301.     4.59     5.30     6.17  
## 3 AF          9.16     9.66    11.0     11.4   25.7     26.4     27.1   
## 4 AG          1.15     1.29     1.41     1.41   0.0815   0.0827   0.0840
## 5 AL          9.22     9.77    10.4     11.1    3.01     2.99     2.97  
## # … with 210 more rows, and 5 more variables: pop.2008 <dbl>, unemp.2005 <dbl>,
## #   unemp.2006 <dbl>, unemp.2007 <dbl>, unemp.2008 <dbl>
…
Each type of observational unit forms a table.

For one thing, this means that whether a dataset is tidy or not depends—at least in part (some data collections are messy from any angle)—on the purpose it’s being analyzed for.

Each row of untidy_data is a country. In observational studies in comparative politics and international relations, more commonly the unit of observation is the country-year.10 How can we take untidy_data and easily make it into country-year data?

We’ll use the tidyr package (again, part of tidyverse) to clean up this data. The biggest problem right now is that each column, besides the country identifier, really encodes two pieces of information: the year of observation and the variable being observed. To deal with this, we’ll have to first transform the data from one untidy format to another. We’re going to use the pivot_longer() function to make each row a country-year-variable.

What pivot_longer() does is make a row for each entry from a set of columns. It’s probably easiest to understand it by seeing it in practice:

long_data <- pivot_longer(untidy_data,
                          cols = starts_with(c("gdp", "pop", "unemp")))
long_data

## # A tibble: 2,580 x 3
##   country name      value
##   <chr>   <chr>     <dbl>
## 1 AD      gdp.2005 3.85  
## 2 AD      gdp.2006 4.03  
## 3 AD      gdp.2007 4.03  
## 4 AD      gdp.2008 3.68  
## 5 AD      pop.2005 0.0789
## # … with 2,575 more rows

The cols argument tells pivot_longer() which columns to collect.
The code here specifies that it be all of the columns starting with “gdp,” “pop,” or “unemp.”
As it happens, we could have achieved the same result by using cols = ends_with(c("2005", "2006", "2007", "2008")).
To select all columns, we instead would have used cols = everything().
For additional ways of selecting columns, see the help page ?tidyselect::select_helpers.

Now we have a new problem, which is that the name column encodes two pieces of information: the variable and the year of its observation. tidyr provides the separate() function to solve that, splitting a single variable into two.

long_data <- separate(long_data,
                      col = "name",
                      into = c("var", "year"))
long_data

## # A tibble: 2,580 x 4
##   country var   year   value
##   <chr>   <chr> <chr>  <dbl>
## 1 AD      gdp   2005  3.85  
## 2 AD      gdp   2006  4.03  
## 3 AD      gdp   2007  4.03  
## 4 AD      gdp   2008  3.68  
## 5 AD      pop   2005  0.0789
## # … with 2,575 more rows

So now we have country-year-variable data, with the year and variable conveniently stored in different columns. To turn this into country-year data, we can use the pivot_wider() function, which is like the inverse of pivot_longer(). pivot_wider() takes a key column and a value column, and turns each different key into a column of its own.

clean_data <- pivot_wider(long_data,
                          names_from = "var",
                          values_from = "value")
clean_data

## # A tibble: 860 x 5
##   country year     gdp    pop unemp
##   <chr>   <chr>  <dbl>  <dbl> <dbl>
## 1 AD      2005    3.85 0.0789 NA   
## 2 AD      2006    4.03 0.0810 NA   
## 3 AD      2007    4.03 0.0827 NA   
## 4 AD      2008    3.68 0.0839 NA   
## 5 AE      2005  257.   4.59    3.12
## # … with 855 more rows
…
than i(h(g(f(x)))).

You can pass function arguments using the pipe too. For example, f(x, bear = "moose") is equivalent to x %>% f(bear = "moose").

The key thing about the tidyverse functions is that each of them takes a data frame as its first argument, and returns a data frame as its output. This makes them highly amenable to piping. For example, we can combine all three steps of our tidying above with a single command, thanks to the pipe:

untidy_data %>%
  pivot_longer(cols = starts_with(c("gdp", "pop", "unemp"))) %>%
  separate(col = "name",
           into = c("var", "year")) %>%
  pivot_wider(names_from = "var",
              values_from = "value")

## # A tibble: 860 x 5
##   country year     gdp    pop unemp
##   <chr>   <chr>  <dbl>  <dbl> <dbl>
## 1 AD      2005    3.85 0.0789 NA   
## 2 AD      2006    4.03 0.0810 NA   
## 3 AD      2007    4.03 0.0827 NA   
## 4 AD      2008    3.68 0.0839 NA   
## 5 AE      2005  257.   4.59    3.12
## # … with 855 more rows
…
Going back to last week’s dictum of “write programs for people”: even though this would have the same computational result, it’s much harder for a human (your future self or a coauthor) to parse what the code is trying to do.

3.3 Transforming and Aggregating

Tidying the data usually isn’t the end of the process. If you want to perform further calculations on the raw, that’s where the tools in dplyr (part of, you guessed it, the tidyverse) come in.

Perhaps the simplest dplyr function (or “verb,” as the R hipsters would say) is rename(), which lets you rename columns.

clean_data %>%
  rename(gross_domestic_product = gdp)

## # A tibble: 860 x 5
##   country year  gross_domestic_product    pop unemp
##   <chr>   <chr>                  <dbl>  <dbl> <dbl>
## 1 AD      2005                    3.85 0.0789 NA   
## 2 AD      2006                    4.03 0.0810 NA   
## 3 AD      2007                    4.03 0.0827 NA   
## 4 AD      2008                    3.68 0.0839 NA   
## 5 AE      2005                  257.   4.59    3.12
## # … with 855 more rows

The dplyr functions, like the vast majority of R functions, do not modify their inputs. In other words, running rename() on clean_data will return a renamed copy of clean_data, but won’t overwrite the original.

clean_data

## # A tibble: 860 x 5
##   country year     gdp    pop unemp
##   <chr>   <chr>  <dbl>  <dbl> <dbl>
## 1 AD      2005    3.85 0.0789 NA   
## 2 AD      2006    4.03 0.0810 NA   
## 3 AD      2007    4.03 0.0827 NA   
## 4 AD      2008    3.68 0.0839 NA   
## 5 AE      2005  257.   4.59    3.12
## # … with 855 more rows

If you wanted to make the change stick, you would have to run:

clean_data <- clean_data %>%
  rename(gross_domestic_product = gdp)

select() lets you keep a couple of columns and drop all the others. Or vice versa if you use minus signs.

clean_data %>%
  select(country, gdp)

## # A tibble: 860 x 2
##   country    gdp
##   <chr>    <dbl>
## 1 AD        3.85
## 2 AD        4.03
## 3 AD        4.03
## 4 AD        3.68
## 5 AE      257.  
## # … with 855 more rows

clean_data %>%
  select(-pop)

## # A tibble: 860 x 4
##   country year     gdp unemp
##   <chr>   <chr>  <dbl> <dbl>
## 1 AD      2005    3.85 NA   
## 2 AD      2006    4.03 NA   
## 3 AD      2007    4.03 NA   
## 4 AD      2008    3.68 NA   
## 5 AE      2005  257.    3.12
## # … with 855 more rows

As we saw above, you can also select columns based on how their names start or end, or with even more complex criteria.
See ?tidyselect::select_helpers.

untidy_data %>%
  select(country, starts_with("gdp"))

## # A tibble: 215 x 5
##   country gdp.2005 gdp.2006 gdp.2007 gdp.2008
##   <chr>      <dbl>    <dbl>    <dbl>    <dbl>
## 1 AD          3.85     4.03     4.03     3.68
## 2 AE        257.     283.     292.     301.  
## 3 AF          9.16     9.66    11.0     11.4 
## 4 AG          1.15     1.29     1.41     1.41
## 5 AL          9.22     9.77    10.4     11.1 
## # … with 210 more rows

untidy_data %>%
  select(country, ends_with("2005"))

## # A tibble: 215 x 4
##   country gdp.2005 pop.2005 unemp.2005
##   <chr>      <dbl>    <dbl>      <dbl>
## 1 AD          3.85   0.0789      NA   
## 2 AE        257.     4.59         3.12
## 3 AF          9.16  25.7          2.94
## 4 AG          1.15   0.0815      NA   
## 5 AL          9.22   3.01        16.9 
## # … with 210 more rows

mutate() lets you create new variables that are transformations of old ones.

clean_data %>%
  mutate(gdppc = gdp / pop,
         log_gdppc = log(gdppc))

## # A tibble: 860 x 7
##   country year     gdp    pop unemp gdppc log_gdppc
##   <chr>   <chr>  <dbl>  <dbl> <dbl> <dbl>     <dbl>
## 1 AD      2005    3.85 0.0789 NA     48.8      3.89
## 2 AD      2006    4.03 0.0810 NA     49.7      3.91
## 3 AD      2007    4.03 0.0827 NA     48.7      3.89
## 4 AD      2008    3.68 0.0839 NA     43.9      3.78
## 5 AE      2005  257.   4.59    3.12  56.1      4.03
## # … with 855 more rows

filter() cuts down the data according to the logical condition(s) you specify.

clean_data %>%
  filter(year == 2006)

## # A tibble: 215 x 5
##   country year     gdp     pop unemp
##   <chr>   <chr>  <dbl>   <dbl> <dbl>
## 1 AD      2006    4.03  0.0810 NA   
## 2 AE      2006  283.    5.30    2.77
## 3 AF      2006    9.66 26.4     2.83
## 4 AG      2006    1.29  0.0827 NA   
## 5 AL      2006    9.77  2.99   16.4 
## # … with 210 more rows
…
summarise() produces a “smaller” data frame than the input—one row per group. If you want to do something similar, but preserving the structure of the original data, use mutate in combination with group_by.

clean_data %>%
  filter(!is.na(unemp)) %>%
  group_by(year) %>%
  mutate(max_unemp = max(unemp),
         unemp_over_max = unemp / max_unemp) %>%
  select(country, year, contains("unemp"))

## # A tibble: 744 x 5
## # Groups:   year [4]
##   country year  unemp max_unemp unemp_over_max
##   <chr>   <chr> <dbl>     <dbl>          <dbl>
## 1 AE      2005   3.12      37.2         0.0838
## 2 AE      2006   2.77      36.0         0.0770
## 3 AE      2007   2.47      34.9         0.0706
## 4 AE      2008   2.33      33.8         0.0691
## 5 AF      2005   2.94      37.2         0.0790
## # … with 739 more rows
…
Let’s practice merging data with our cleaned-up country-year data. We’ll take two datasets from my website: a country-level dataset with latitudes and longitudes, and a country-year–level dataset with inflation over time.

latlong_data <- read_csv("http://bkenkel.com/files/latlong.csv")
latlong_data

## # A tibble: 245 x 3
##   country latitude longitude
##   <chr>      <dbl>     <dbl>
## 1 AD          42.5      1.60
## 2 AE          23.4     53.8 
## 3 AF          33.9     67.7 
## 4 AG          17.1    -61.8 
## 5 AI          18.2    -63.1 
## # … with 240 more rows

inflation_data <- read_csv("http://bkenkel.com/files/inflation.csv")
inflation_data

## # A tibble: 1,070 x 3
##   country  year inflation
##   <chr>   <dbl>     <dbl>
## 1 AD       2004        NA
## 2 AD       2005        NA
## 3 AD       2006        NA
## 4 AD       2007        NA
## 5 AD       2008        NA
## # … with 1,065 more rows

For your convenience, both of these datasets use the same two-letter country naming scheme as the original data. Unfortunately, out in the real world, data from different sources often use incommensurate naming schemes. Converting from one naming scheme to another is part of the data cleaning process, and it requires careful attention.

dplyr contains various _join() functions for merging. Each of these take as arguments the two data frames to merge, plus the names of the identifier variables to merge them on. The one I use most often is left_join(), which keeps every row from the first (“left”) data frame and merges in the columns from the second (“right”) data frame.

For example, let’s merge the latitude and longitude data for each country into clean_data.

left_join(clean_data,
          latlong_data,
          by = "country")

## # A tibble: 860 x 7
##   country year     gdp    pop unemp latitude longitude
##   <chr>   <chr>  <dbl>  <dbl> <dbl>    <dbl>     <dbl>
## 1 AD      2005    3.85 0.0789 NA        42.5      1.60
## 2 AD      2006    4.03 0.0810 NA        42.5      1.60
## 3 AD      2007    4.03 0.0827 NA        42.5      1.60
## 4 AD      2008    3.68 0.0839 NA        42.5      1.60
## 5 AE      2005  257.   4.59    3.12     23.4     53.8 
## # … with 855 more rows
…
left_join(clean_data,
          inflation_data,
          by = c("country", "year"))

## Error: Can't join on `x$year` x `y$year` because of incompatible types.
## ℹ `x$year` is of type <character>>.
## ℹ `y$year` is of type <double>>.

To fix this, let’s use mutate() to convert the year column of clean_data to an integer. We probably should have done this in the first place—after all, having the year encoded as a character string would have thrown off plotting functions, statistical functions, or anything else where it would be more natural to treat the year like a number.

clean_data <- mutate(clean_data,
                     year = as.integer(year))
clean_data

## # A tibble: 860 x 5
##   country  year    gdp    pop unemp
##   <chr>   <int>  <dbl>  <dbl> <dbl>
## 1 AD       2005   3.85 0.0789 NA   
## 2 AD       2006   4.03 0.0810 NA   
## 3 AD       2007   4.03 0.0827 NA   
## 4 AD       2008   3.68 0.0839 NA   
## 5 AE       2005 257.   4.59    3.12
## # … with 855 more rows

Looks the same as before, except with an important difference: year is now labeled <int>.

Now we can merge the two datasets together without issue. Notice how we use a vector in the by argument to specify multiple columns to merge on.

left_join(clean_data,
          inflation_data,
          by = c("country", "year"))

## # A tibble: 860 x 6
##   country  year    gdp    pop unemp inflation
##   <chr>   <dbl>  <dbl>  <dbl> <dbl>     <dbl>
## 1 AD       2005   3.85 0.0789 NA           NA
## 2 AD       2006   4.03 0.0810 NA           NA
## 3 AD       2007   4.03 0.0827 NA           NA
## 4 AD       2008   3.68 0.0839 NA           NA
## 5 AE       2005 257.   4.59    3.12        NA
## # … with 855 more rows

You might remember that inflation_data contained some country-years not included in the original data (namely, observations from 2004). If we want the merged data to use the observations from inflation_data rather than clean_data, we can use the right_join() function.

right_join(clean_data,
           inflation_data,
           by = c("country", "year"))

## # A tibble: 1,070 x 6
##   country  year    gdp    pop unemp inflation
##   <chr>   <dbl>  <dbl>  <dbl> <dbl>     <dbl>
## 1 AD       2005   3.85 0.0789 NA           NA
## 2 AD       2006   4.03 0.0810 NA           NA
## 3 AD       2007   4.03 0.0827 NA           NA
## 4 AD       2008   3.68 0.0839 NA           NA
## 5 AE       2005 257.   4.59    3.12        NA
## # … with 1,065 more rows

One last common issue in merging is that the identifier variables have different names in the two datasets. If it’s inconvenient or infeasible to correct this by renaming the columns in one or the other, you can specify the by argument as in the following example.

inflation_data <- rename(inflation_data,
                         the_country = country,
                         the_year = year)
inflation_data

## # A tibble: 1,070 x 3
##   the_country the_year inflation
##   <chr>          <dbl>     <dbl>
## 1 AD              2004        NA
## 2 AD              2005        NA
## 3 AD              2006        NA
## 4 AD              2007        NA
## 5 AD              2008        NA
## # … with 1,065 more rows

left_join(clean_data,
          inflation_data,
          by = c("country" = "the_country", "year" = "the_year"))

## # A tibble: 860 x 6
##   country  year    gdp    pop unemp inflation
##   <chr>   <dbl>  <dbl>  <dbl> <dbl>     <dbl>
## 1 AD       2005   3.85 0.0789 NA           NA
## 2 AD       2006   4.03 0.0810 NA           NA
## 3 AD       2007   4.03 0.0827 NA           NA
## 4 AD       2008   3.68 0.0839 NA           NA
## 5 AE       2005 257.   4.59    3.12        NA
## # … with 855 more rows
…
Next, I download the relevant WDI data. I used the WDIsearch() function to locate the appropriate indicator names.

dat_raw <- WDI(country = "all",
               indicator = c("NY.GDP.MKTP.KD",  # GDP in 2000 USD
                             "SP.POP.TOTL",     # Total population
                             "SL.UEM.TOTL.ZS"), # Unemployment rate
               start = 2005,
               end = 2008)

dat_raw <- as_tibble(dat_raw)  # convert to tidyverse data frame
dat_raw

## # A tibble: 1,056 x 6
##   iso2c country     year NY.GDP.MKTP.KD SP.POP.TOTL SL.UEM.TOTL.ZS
##   <chr> <chr>      <int>          <dbl>       <dbl>          <dbl>
## 1 1A    Arab World  2005        1.70e12   314965793          11.1 
## 2 1A    Arab World  2006        1.81e12   322452754          10.3 
## 3 1A    Arab World  2007        1.89e12   330290716           9.79
## 4 1A    Arab World  2008        2.00e12   338395961           9.45
## 5 1W    World       2005        5.81e13  6511748367           5.90
## # … with 1,051 more rows
…
With that out of the way, there’s still some cleaning up to do. The magnitudes of GDP and population are too large, and the variable names are impenetrable. Also, the country variable, while helpful, is redundant now that we’re satisfied with the list of countries remaining.

dat_countries <- dat_countries %>%
  select(-country) %>%
  rename(gdp = NY.GDP.MKTP.KD,
         pop = SP.POP.TOTL,
         unemp = SL.UEM.TOTL.ZS,
         country = iso2c) %>%
  mutate(gdp = gdp / 1e9,
         pop = pop / 1e6)

dat_countries

## # A tibble: 860 x 5
##   country  year    gdp    pop unemp
##   <chr>   <int>  <dbl>  <dbl> <dbl>
## 1 AD       2005   3.70 0.0789 NA   
## 2 AD       2006   3.88 0.0810 NA   
## 3 AD       2007   3.94 0.0827 NA   
## 4 AD       2008   3.72 0.0839 NA   
## 5 AE       2005 257.   4.59    3.12
## # … with 855 more rows

Now I convert the data to “long” format.

dat_countries_long <- dat_countries %>%
  pivot_longer(cols = gdp:unemp)

dat_countries_long

## # A tibble: 2,580 x 4
##   country  year name    value
##   <chr>   <int> <chr>   <dbl>
## 1 AD       2005 gdp    3.70  
## 2 AD       2005 pop    0.0789
## 3 AD       2005 unemp NA     
## 4 AD       2006 gdp    3.88  
## 5 AD       2006 pop    0.0810
## # … with 2,575 more rows

I then smush name and year into a single column, and drop the individual components.

dat_countries_long <- dat_countries_long %>%
  mutate(var_year = paste(name, year, sep = ".")) %>%
  select(-name, -year)

dat_countries_long

## # A tibble: 2,580 x 3
##   country   value var_year  
##   <chr>     <dbl> <chr>     
## 1 AD       3.70   gdp.2005  
## 2 AD       0.0789 pop.2005  
## 3 AD      NA      unemp.2005
## 4 AD       3.88   gdp.2006  
## 5 AD       0.0810 pop.2006  
## # … with 2,575 more rows
…
