Practical Data Analysis for Political Scientists
…
forcats contains convenience functions for factors, which are R’s way of representing categorical variables. interplot is for plotting marginal effects from interactive models.

Once again, we will work with the occupational prestige data from the car package. We will also convert it to a tibble, so that it will more closely resemble the kind of data frame we would get had we read it in with read_csv().

library("car")
data(Prestige)
Prestige <- as_tibble(Prestige)

Prestige

## # A tibble: 102 × 6
##   education income women prestige census   type
## *     <dbl>  <int> <dbl>    <dbl>  <int> <fctr>
## 1     13.11  12351 11.16     68.8   1113   prof
## 2     12.26  25879  4.02     69.1   1130   prof
## 3     12.77   9271 15.70     63.4   1171   prof
## 4     11.42   8865  9.11     56.8   1175   prof
## 5     14.62   8403 11.68     73.5   2111   prof
## # ... with 97 more rows
…
