Practical Data Analysis for Political Scientists
…
We only have time to scratch the surface of data visualization. This chapter will cover the plotting techniques I find most useful for exploratory and descriptive data analysis. We will talk about graphical techniques for presenting the results of regression analyses later in the class—once we’ve, you know, learned something about regression.

4.1 Basic Plots

We will use the ggplot2 package, which is part of—I’m as tired of it as you are—the tidyverse.

library("tidyverse")

For the examples today, we’ll be using a dataset with statistics about the fifty U.S. states in 1977,11 which is posted on my website.

state_data <- read_csv("http://bkenkel.com/data/state-data.csv")
state_data

## # A tibble: 50 × 12
##        State Abbrev Region Population Income Illiteracy LifeExp Murder
##        <chr>  <chr>  <chr>      <dbl>  <dbl>      <dbl>   <dbl>  <dbl>
## 1    Alabama     AL  South       3615   3624        2.1   69.05   15.1
## 2     Alaska     AK   West        365   6315        1.5   69.31   11.3
## 3    Arizona     AZ   West       2212   4530        1.8   70.55    7.8
## 4   Arkansas     AR  South       2110   3378        1.9   70.66   10.1
## 5 California     CA   West      21198   5114        1.1   71.71   10.3
## # ... with 45 more rows, and 4 more variables: HSGrad <dbl>, Frost <dbl>,
## #   Area <dbl>, IncomeGroup <chr>
…
